ghdl - test dir/ch13/ch13_4.vcd
$date
  Sat Oct 10 12:15:00 2020
$end
$version
  GHDL v0
$end
$timescale
  1 fs
$end
$scope module standard $end
$upscope $end
$scope module std_logic_1164 $end
$upscope $end
$scope module ch13_4_tb $end
$var reg 1 ! reset $end
$var reg 1 " clk $end
$var reg 1 # ld $end
$var reg 1 $ up $end
$var reg 8 % din[7:0] $end
$var reg 8 & count[7:0] $end
$scope module uut $end
$upscope $end
$upscope $end
$enddefinitions $end
#0
0!
0"
0#
0$
b01010101 %
bUUUUUUUU &
#5000000
1"
#10000000
0"
#15000000
1"
#20000000
0"
#25000000
1"
#30000000
0"
#35000000
1"
#40000000
0"
#45000000
1"
#50000000
0"
1$
#55000000
1"
#60000000
0"
#65000000
1"
#70000000
0"
#75000000
1"
#80000000
0"
#85000000
1"
#90000000
0"
#95000000
1"
#100000000
0"
1#
0$
#105000000
1"
#110000000
0"
#115000000
1"
#120000000
0"
#125000000
1"
#130000000
0"
#135000000
1"
#140000000
0"
#145000000
1"
#150000000
0"
1$
#155000000
1"
#160000000
0"
#165000000
1"
#170000000
0"
#175000000
1"
#180000000
0"
#185000000
1"
#190000000
0"
#195000000
1"
#200000000
1!
0"
0#
0$
#205000000
1"
#210000000
0"
#215000000
1"
#220000000
0"
#225000000
1"
#230000000
0"
#235000000
1"
#240000000
0"
#245000000
1"
#250000000
0"
1$
#255000000
1"
#260000000
0"
#265000000
1"
#270000000
0"
#275000000
1"
#280000000
0"
#285000000
1"
#290000000
0"
#295000000
1"
#300000000
0"
1#
0$
#305000000
1"
#310000000
0"
#315000000
1"
#320000000
0"
#325000000
1"
#330000000
0"
#335000000
1"
#340000000
0"
#345000000
1"
#350000000
0"
1$
